{"nodes":[
{"name": " AccountingF19 "},
{"name": " AgricultureF19 "},
{"name": " AgricultureS19 "},
{"name": " Basic BusinessF18 "},
{"name": " Basic BusinessS18 "},
{"name": " Basic BusinessS19 "},
{"name": " Business ManagementF19 "},
{"name": " Civil EngineeringF17 "},
{"name": " Civil EngineeringF18 "},
{"name": " Civil EngineeringF19 "},
{"name": " Civil EngineeringS18 "},
{"name": " Civil EngineeringS19 "},
{"name": " Computer ScienceS19 "},
{"name": " Engineering TechnologyF18 "},
{"name": " Engineering TechnologyF19 "},
{"name": " Engineering TechnologyS18 "},
{"name": " Engineering TechnologyS19 "},
{"name": " FinanceF19 "},
{"name": " GeosciencesF19 "},
{"name": " GeosciencesS19 "},
{"name": " Human EcologyF18 "},
{"name": " Human EcologyF19 "},
{"name": " Human EcologyS18 "},
{"name": " Human EcologyS19 "},
{"name": " Mechanical EngineeringF19 "},
{"name": " Mechanical EngineeringS19 "},
{"name": " Not EnrolledF18 "},
{"name": " Not EnrolledF19 "},
{"name": " Not EnrolledS18 "},
{"name": " Not EnrolledS19 "},
{"name": " Political ScienceF18 "},
{"name": " Political ScienceF19 "},
{"name": " Political ScienceS19 "},
{"name": " Professional StudiesF19 "}
],
"links":[
{"source": 2, "target": 1, "value": 1.0},
{"source": 3, "target": 5, "value": 1.0},
{"source": 4, "target": 3, "value": 1.0},
{"source": 5, "target": 17, "value": 1.0},
{"source": 7, "target": 4, "value": 1.0},
{"source": 7, "target": 10, "value": 56.0},
{"source": 7, "target": 15, "value": 1.0},
{"source": 7, "target": 22, "value": 1.0},
{"source": 7, "target": 28, "value": 6.0},
{"source": 8, "target": 2, "value": 1.0},
{"source": 8, "target": 11, "value": 34.0},
{"source": 8, "target": 12, "value": 1.0},
{"source": 8, "target": 16, "value": 2.0},
{"source": 8, "target": 25, "value": 2.0},
{"source": 8, "target": 29, "value": 4.0},
{"source": 10, "target": 8, "value": 43.0},
{"source": 10, "target": 13, "value": 1.0},
{"source": 10, "target": 20, "value": 1.0},
{"source": 10, "target": 26, "value": 10.0},
{"source": 10, "target": 30, "value": 1.0},
{"source": 11, "target": 0, "value": 1.0},
{"source": 11, "target": 6, "value": 1.0},
{"source": 11, "target": 9, "value": 30.0},
{"source": 11, "target": 14, "value": 1.0},
{"source": 11, "target": 31, "value": 1.0},
{"source": 12, "target": 33, "value": 1.0},
{"source": 13, "target": 16, "value": 2.0},
{"source": 15, "target": 13, "value": 1.0},
{"source": 16, "target": 14, "value": 4.0},
{"source": 19, "target": 18, "value": 1.0},
{"source": 20, "target": 23, "value": 2.0},
{"source": 22, "target": 20, "value": 1.0},
{"source": 23, "target": 21, "value": 2.0},
{"source": 25, "target": 24, "value": 2.0},
{"source": 26, "target": 19, "value": 1.0},
{"source": 26, "target": 29, "value": 14.0},
{"source": 28, "target": 8, "value": 1.0},
{"source": 28, "target": 26, "value": 5.0},
{"source": 29, "target": 9, "value": 1.0},
{"source": 29, "target": 27, "value": 17.0},
{"source": 30, "target": 32, "value": 1.0},
{"source": 32, "target": 27, "value": 1.0}
]}
