{"nodes":[
{"name": " Early Childhood EducationF17 "},
{"name": " Early Childhood EducationF18 "},
{"name": " Early Childhood EducationF19 "},
{"name": " Early Childhood EducationS18 "},
{"name": " Early Childhood EducationS19 "},
{"name": " Elementary EducationF18 "},
{"name": " Elementary EducationS19 "},
{"name": " Exercise Sci PhysEd WellnessF18 "},
{"name": " Exercise Sci PhysEd WellnessF19 "},
{"name": " Exercise Sci PhysEd WellnessS19 "},
{"name": " Human EcologyF18 "},
{"name": " Human EcologyF19 "},
{"name": " Human EcologyS18 "},
{"name": " Human EcologyS19 "},
{"name": " Multidisciplinary StudiesF18 "},
{"name": " Multidisciplinary StudiesF19 "},
{"name": " Multidisciplinary StudiesS18 "},
{"name": " Multidisciplinary StudiesS19 "},
{"name": " Not EnrolledF18 "},
{"name": " Not EnrolledF19 "},
{"name": " Not EnrolledS18 "},
{"name": " Not EnrolledS19 "},
{"name": " Professional StudiesF18 "},
{"name": " Professional StudiesS18 "}
],
"links":[
{"source": 0 , "target": 3 , "value":  16.0 },
{"source": 0 , "target": 12 , "value":  4.0 },
{"source": 0 , "target": 16 , "value":  1.0 },
{"source": 0 , "target": 20 , "value":  3.0 },
{"source": 0 , "target": 23 , "value":  1.0 },
{"source": 1 , "target": 4 , "value":  8.0 },
{"source": 1 , "target": 21 , "value":  3.0 },
{"source": 3 , "target": 1 , "value":  11.0 },
{"source": 3 , "target": 5 , "value":  1.0 },
{"source": 3 , "target": 10 , "value":  1.0 },
{"source": 3 , "target": 18 , "value":  3.0 },
{"source": 4 , "target": 2 , "value":  7.0 },
{"source": 4 , "target": 19 , "value":  1.0 },
{"source": 5 , "target": 6 , "value":  1.0 },
{"source": 6 , "target": 19 , "value":  1.0 },
{"source": 7 , "target": 9 , "value":  1.0 },
{"source": 9 , "target": 8 , "value":  1.0 },
{"source": 10 , "target": 13 , "value":  4.0 },
{"source": 12 , "target": 7 , "value":  1.0 },
{"source": 12 , "target": 10 , "value":  3.0 },
{"source": 13 , "target": 11 , "value":  4.0 },
{"source": 14 , "target": 17 , "value":  1.0 },
{"source": 16 , "target": 14 , "value":  1.0 },
{"source": 17 , "target": 15 , "value":  1.0 },
{"source": 18 , "target": 21 , "value":  6.0 },
{"source": 20 , "target": 18 , "value":  3.0 },
{"source": 21 , "target": 19 , "value":  10.0 },
{"source": 22 , "target": 21 , "value":  1.0 },
{"source": 23, "target": 22, "value": 1.0}
]}
