{"nodes":[
{"name": " Human EcologyF17 "},
{"name": " Human EcologyF18 "},
{"name": " Human EcologyF19 "},
{"name": " Human EcologyS18 "},
{"name": " Human EcologyS19 "},
{"name": " Not EnrolledF18 "},
{"name": " Not EnrolledF19 "},
{"name": " Not EnrolledS19 "},
{"name": " PsychologyF19 "}
],
"links":[
{"source": 0, "target": 3, "value": 20.0},
{"source": 1, "target": 4, "value": 18.0},
{"source": 3, "target": 1, "value": 18.0},
{"source": 3, "target": 5, "value": 2.0},
{"source": 4, "target": 2, "value": 17.0},
{"source": 4, "target": 8, "value": 1.0},
{"source": 5, "target": 7, "value": 2.0},
{"source": 7, "target": 6, "value": 2.0}
]}
