{"nodes":[
{"name": " AccountingF19 "},
{"name": " Basic BusinessF18 "},
{"name": " Basic BusinessS19 "},
{"name": " Computer ScienceF18 "},
{"name": " Computer ScienceF19 "},
{"name": " Computer ScienceS19 "},
{"name": " MathematicsF17 "},
{"name": " MathematicsF18 "},
{"name": " MathematicsF19 "},
{"name": " MathematicsS18 "},
{"name": " MathematicsS19 "},
{"name": " Not EnrolledF18 "},
{"name": " Not EnrolledF19 "},
{"name": " Not EnrolledS19 "},
{"name": " Secondary EducationF18 "},
{"name": " Secondary EducationF19 "},
{"name": " Secondary EducationS19 "}
],
"links":[
{"source": 1 , "target": 2 , "value":  1.0 },
{"source": 2 , "target": 0 , "value":  1.0 },
{"source": 3 , "target": 5 , "value":  1.0 },
{"source": 5 , "target": 4 , "value":  1.0 },
{"source": 6 , "target": 9 , "value":  8.0 },
{"source": 7 , "target": 10 , "value":  4.0 },
{"source": 9 , "target": 1 , "value":  1.0 },
{"source": 9 , "target": 3 , "value":  1.0 },
{"source": 9 , "target": 7 , "value":  4.0 },
{"source": 9 , "target": 11 , "value":  1.0 },
{"source": 9 , "target": 14 , "value":  1.0 },
{"source": 10 , "target": 8 , "value":  4.0 },
{"source": 11 , "target": 13 , "value":  1.0 },
{"source": 13 , "target": 12 , "value":  1.0 },
{"source": 14 , "target": 16 , "value":  1.0 },
{"source": 16, "target": 15, "value": 1.0}
]}
