{"nodes":[
{"name": " AccountingF19 "},
{"name": " AgricultureF18 "},
{"name": " AgricultureF19 "},
{"name": " AgricultureS19 "},
{"name": " Basic BusinessF18 "},
{"name": " Basic BusinessF19 "},
{"name": " Basic BusinessS18 "},
{"name": " Basic BusinessS19 "},
{"name": " BiologyF19 "},
{"name": " BiologyS18 "},
{"name": " Business ManagementF19 "},
{"name": " Chemical EngineeringF18 "},
{"name": " Chemical EngineeringF19 "},
{"name": " Chemical EngineeringS19 "},
{"name": " Civil EngineeringF18 "},
{"name": " Civil EngineeringF19 "},
{"name": " Civil EngineeringS18 "},
{"name": " Civil EngineeringS19 "},
{"name": " Computer EngineeringF18 "},
{"name": " Computer EngineeringF19 "},
{"name": " Computer EngineeringS19 "},
{"name": " Computer ScienceF18 "},
{"name": " Computer ScienceF19 "},
{"name": " Computer ScienceS18 "},
{"name": " Computer ScienceS19 "},
{"name": " Electrical EngineeringF18 "},
{"name": " Electrical EngineeringF19 "},
{"name": " Electrical EngineeringS19 "},
{"name": " Engineering TechnologyF18 "},
{"name": " Engineering TechnologyF19 "},
{"name": " Engineering TechnologyS18 "},
{"name": " Engineering TechnologyS19 "},
{"name": " Exercise Sci PhysEd WellnessF18 "},
{"name": " Exercise Sci PhysEd WellnessF19 "},
{"name": " Exercise Sci PhysEd WellnessS19 "},
{"name": " FinanceF19 "},
{"name": " FinanceS19 "},
{"name": " General CurriculumF18 "},
{"name": " General CurriculumS18 "},
{"name": " Human EcologyF19 "},
{"name": " Interdisciplinary StudiesF18 "},
{"name": " MathematicsF18 "},
{"name": " MathematicsF19 "},
{"name": " MathematicsS18 "},
{"name": " MathematicsS19 "},
{"name": " Mechanical EngineeringF17 "},
{"name": " Mechanical EngineeringF18 "},
{"name": " Mechanical EngineeringF19 "},
{"name": " Mechanical EngineeringS18 "},
{"name": " Mechanical EngineeringS19 "},
{"name": " MusicF18 "},
{"name": " MusicF19 "},
{"name": " MusicS18 "},
{"name": " MusicS19 "},
{"name": " Not EnrolledF18 "},
{"name": " Not EnrolledF19 "},
{"name": " Not EnrolledS18 "},
{"name": " Not EnrolledS19 "},
{"name": " Pre-MedicineF18 "},
{"name": " Pre-MedicineS19 "},
{"name": " PsychologyF18 "},
{"name": " PsychologyF19 "},
{"name": " PsychologyS19 "},
{"name": " Secondary EducationS19 "},
{"name": " SociologyF19 "},
{"name": " SociologyS19 "},
{"name": " Wildlife and Fisheries ScienceS18 "}
],
"links":[
{"source": 1 , "target": 3 , "value":  1.0 },
{"source": 3 , "target": 2 , "value":  1.0 },
{"source": 3 , "target": 55 , "value":  1.0 },
{"source": 4 , "target": 7 , "value":  2.0 },
{"source": 4 , "target": 36 , "value":  1.0 },
{"source": 4 , "target": 57 , "value":  1.0 },
{"source": 6 , "target": 4 , "value":  2.0 },
{"source": 7 , "target": 5 , "value":  1.0 },
{"source": 7 , "target": 10 , "value":  1.0 },
{"source": 7 , "target": 35 , "value":  1.0 },
{"source": 9 , "target": 58 , "value":  1.0 },
{"source": 11 , "target": 13 , "value":  1.0 },
{"source": 13 , "target": 12 , "value":  1.0 },
{"source": 14 , "target": 17 , "value":  1.0 },
{"source": 16 , "target": 14 , "value":  1.0 },
{"source": 16 , "target": 54 , "value":  1.0 },
{"source": 17 , "target": 15 , "value":  3.0 },
{"source": 18 , "target": 20 , "value":  1.0 },
{"source": 20 , "target": 19 , "value":  1.0 },
{"source": 21 , "target": 24 , "value":  2.0 },
{"source": 21 , "target": 57 , "value":  1.0 },
{"source": 23 , "target": 21 , "value":  2.0 },
{"source": 23 , "target": 54 , "value":  1.0 },
{"source": 24 , "target": 22 , "value":  2.0 },
{"source": 25 , "target": 27 , "value":  1.0 },
{"source": 27 , "target": 26 , "value":  1.0 },
{"source": 27 , "target": 55 , "value":  1.0 },
{"source": 28 , "target": 31 , "value":  9.0 },
{"source": 28 , "target": 57 , "value":  1.0 },
{"source": 30 , "target": 28 , "value":  4.0 },
{"source": 31 , "target": 29 , "value":  14.0 },
{"source": 31 , "target": 55 , "value":  3.0 },
{"source": 32 , "target": 34 , "value":  1.0 },
{"source": 34 , "target": 33 , "value":  1.0 },
{"source": 36 , "target": 35 , "value":  1.0 },
{"source": 37 , "target": 7 , "value":  1.0 },
{"source": 38 , "target": 4 , "value":  1.0 },
{"source": 40 , "target": 57 , "value":  1.0 },
{"source": 41 , "target": 44 , "value":  1.0 },
{"source": 43 , "target": 41 , "value":  1.0 },
{"source": 44 , "target": 42 , "value":  1.0 },
{"source": 45 , "target": 6 , "value":  2.0 },
{"source": 45 , "target": 9 , "value":  1.0 },
{"source": 45 , "target": 16 , "value":  2.0 },
{"source": 45 , "target": 23 , "value":  3.0 },
{"source": 45 , "target": 30 , "value":  4.0 },
{"source": 45 , "target": 38 , "value":  1.0 },
{"source": 45 , "target": 43 , "value":  1.0 },
{"source": 45 , "target": 48 , "value":  130.0 },
{"source": 45 , "target": 52 , "value":  2.0 },
{"source": 45 , "target": 56 , "value":  12.0 },
{"source": 45 , "target": 66 , "value":  2.0 },
{"source": 46 , "target": 3 , "value":  1.0 },
{"source": 46 , "target": 17 , "value":  2.0 },
{"source": 46 , "target": 31 , "value":  8.0 },
{"source": 46 , "target": 49 , "value":  80.0 },
{"source": 46 , "target": 57 , "value":  3.0 },
{"source": 46 , "target": 63 , "value":  1.0 },
{"source": 46 , "target": 65 , "value":  1.0 },
{"source": 48 , "target": 4 , "value":  1.0 },
{"source": 48 , "target": 11 , "value":  1.0 },
{"source": 48 , "target": 18 , "value":  1.0 },
{"source": 48 , "target": 21 , "value":  1.0 },
{"source": 48 , "target": 25 , "value":  1.0 },
{"source": 48 , "target": 28 , "value":  6.0 },
{"source": 48 , "target": 32 , "value":  1.0 },
{"source": 48 , "target": 37 , "value":  1.0 },
{"source": 48 , "target": 40 , "value":  1.0 },
{"source": 48 , "target": 46 , "value":  96.0 },
{"source": 48 , "target": 54 , "value":  19.0 },
{"source": 48 , "target": 60 , "value":  1.0 },
{"source": 49 , "target": 0 , "value":  1.0 },
{"source": 49 , "target": 2 , "value":  1.0 },
{"source": 49 , "target": 5 , "value":  1.0 },
{"source": 49 , "target": 15 , "value":  1.0 },
{"source": 49 , "target": 29 , "value":  5.0 },
{"source": 49 , "target": 39 , "value":  1.0 },
{"source": 49 , "target": 47 , "value":  63.0 },
{"source": 49 , "target": 55 , "value":  7.0 },
{"source": 50 , "target": 53 , "value":  1.0 },
{"source": 52 , "target": 50 , "value":  1.0 },
{"source": 52 , "target": 54 , "value":  1.0 },
{"source": 53 , "target": 51 , "value":  1.0 },
{"source": 54 , "target": 27 , "value":  1.0 },
{"source": 54 , "target": 57 , "value":  34.0 },
{"source": 56 , "target": 54 , "value":  12.0 },
{"source": 57 , "target": 47 , "value":  1.0 },
{"source": 57 , "target": 55 , "value":  40.0 },
{"source": 58 , "target": 59 , "value":  1.0 },
{"source": 59 , "target": 8 , "value":  1.0 },
{"source": 60 , "target": 62 , "value":  1.0 },
{"source": 62 , "target": 61 , "value":  1.0 },
{"source": 63 , "target": 55 , "value":  1.0 },
{"source": 65 , "target": 64 , "value":  1.0 },
{"source": 66, "target": 1, "value": 1.0}, {"source": 66, "target": 54, "value": 1.0}
]}
