{"nodes":[
{"name": " AgricultureF19 "},
{"name": " Basic EngineeringF18 "},
{"name": " BiologyF19 "},
{"name": " ChemistryF19 "},
{"name": " ChemistryS19 "},
{"name": " Engineering TechnologyS19 "},
{"name": " Exercise Sci PhysEd WellnessF19 "},
{"name": " Exercise Sci PhysEd WellnessS19 "},
{"name": " Pre-OptometryF17 "},
{"name": " Pre-OptometryF18 "},
{"name": " Pre-OptometryS18 "},
{"name": " Pre-OptometryS19 "},
{"name": " PsychologyF18 "}
],
"links":[
{"source": 1, "target": 5, "value": 1.0},
{"source": 4, "target": 3, "value": 1.0},
{"source": 5, "target": 0, "value": 1.0},
{"source": 7, "target": 6, "value": 1.0},
{"source": 8, "target": 10, "value": 5.0},
{"source": 9, "target": 4, "value": 1.0},
{"source": 9, "target": 11, "value": 2.0},
{"source": 10, "target": 1, "value": 1.0},
{"source": 10, "target": 9, "value": 3.0},
{"source": 10, "target": 12, "value": 1.0},
{"source": 11, "target": 2, "value": 2.0},
{"source": 12, "target": 7, "value": 1.0}
]}
